{
  "stats": {
    "suites": 1,
    "tests": 1,
    "passes": 1,
    "pending": 0,
    "failures": 0,
    "start": "2023-10-26T08:11:48.935Z",
    "end": "2023-10-26T08:11:49.205Z",
    "duration": 270,
    "testsRegistered": 1,
    "passPercent": 100,
    "pendingPercent": 0,
    "other": 0,
    "hasOther": false,
    "skipped": 0,
    "hasSkipped": false
  },
  "results": [
    {
      "uuid": "95dc05d2-1bd5-45cc-b3e8-c86f58df92f0",
      "title": "",
      "fullFile": "cypress/e2e/API Testing.cy.js",
      "file": "cypress/e2e/API Testing.cy.js",
      "beforeHooks": [],
      "afterHooks": [],
      "tests": [],
      "suites": [
        {
          "uuid": "e9d9d0f4-82b4-48f2-b4b3-4ae396a1fe6b",
          "title": "API Test",
          "fullFile": "",
          "file": "",
          "beforeHooks": [],
          "afterHooks": [],
          "tests": [
            {
              "title": "Validate JSON data from API",
              "fullTitle": "API Test Validate JSON data from API",
              "timedOut": null,
              "duration": 246,
              "state": "passed",
              "speed": "fast",
              "pass": true,
              "fail": false,
              "pending": false,
              "context": null,
              "code": "cy.request('GET', 'http://worldtimeapi.org/api/timezone/Asia/Kolkata').then(response => {\n  expect(response.status).to.eq(200);\n});",
              "err": {},
              "uuid": "ea62c7b3-45c5-4c9c-b6c2-f479c3446d94",
              "parentUUID": "e9d9d0f4-82b4-48f2-b4b3-4ae396a1fe6b",
              "isHook": false,
              "skipped": false
            }
          ],
          "suites": [],
          "passes": [
            "ea62c7b3-45c5-4c9c-b6c2-f479c3446d94"
          ],
          "failures": [],
          "pending": [],
          "skipped": [],
          "duration": 246,
          "root": false,
          "rootEmpty": false,
          "_timeout": 2000
        }
      ],
      "passes": [],
      "failures": [],
      "pending": [],
      "skipped": [],
      "duration": 0,
      "root": true,
      "rootEmpty": true,
      "_timeout": 2000
    }
  ],
  "meta": {
    "mocha": {
      "version": "7.0.1"
    },
    "mochawesome": {
      "options": {
        "quiet": false,
        "reportFilename": "mochawesome",
        "saveHtml": false,
        "saveJson": true,
        "consoleReporter": "spec",
        "useInlineDiffs": false,
        "code": true
      },
      "version": "7.1.3"
    },
    "marge": {
      "options": {
        "overwrite": false,
        "html": false,
        "json": true
      },
      "version": "6.2.0"
    }
  }
}