{
  "stats": {
    "suites": 1,
    "tests": 1,
    "passes": 0,
    "pending": 0,
    "failures": 1,
    "start": "2023-10-26T12:10:54.472Z",
    "end": "2023-10-26T12:10:55.584Z",
    "duration": 1112,
    "testsRegistered": 1,
    "passPercent": 0,
    "pendingPercent": 0,
    "other": 0,
    "hasOther": false,
    "skipped": 0,
    "hasSkipped": false
  },
  "results": [
    {
      "uuid": "249ce48e-5881-4d60-a6df-9d25a03662bd",
      "title": "",
      "fullFile": "cypress/e2e/Latest data_new.cy.js",
      "file": "cypress/e2e/Latest data_new.cy.js",
      "beforeHooks": [],
      "afterHooks": [],
      "tests": [],
      "suites": [
        {
          "uuid": "7e6d6d04-70db-4cf2-a360-1487dbe9d27b",
          "title": "API Tests",
          "fullFile": "",
          "file": "",
          "beforeHooks": [],
          "afterHooks": [],
          "tests": [
            {
              "title": "Verify latest data for UC08",
              "fullTitle": "API Tests Verify latest data for UC08",
              "timedOut": null,
              "duration": 1058,
              "state": "failed",
              "speed": null,
              "pass": false,
              "fail": true,
              "pending": false,
              "context": "{\n  \"title\": \"cypress-mochawesome-reporter-screenshots\",\n  \"value\": [\n    [\n      {\n        \"title\": \"Failed screenshot\",\n        \"value\": \"/Latest data_new.cy.js/API Tests -- Verify latest data for UC08 (failed).png\"\n      }\n    ]\n  ]\n}",
              "code": "cy.request('https://timeapi.io/api/Time/current/zone?timeZone=Europe/Amsterdam').its('body').then(apiResponse => {\n  const apiDateTime = `${apiResponse.date} ${apiResponse.time}`;\n  const apiFormattedDateTime = Cypress.moment(apiDateTime).format('YYYY-MM-DD HH:mm:ss');\n  const currentDateTime = Cypress.moment().format('YYYY-MM-DD HH:mm:ss'); // Assert the API response date and time matches the current date and time\n  expect(apiFormattedDateTime).to.equal(currentDateTime);\n});",
              "err": {
                "message": "TypeError: Cypress.moment is not a function",
                "estack": "TypeError: Cypress.moment is not a function\n    at Context.eval (webpack:///./cypress/e2e/Latest data_new.cy.js:7:49)",
                "diff": null
              },
              "uuid": "c2fc1625-c00b-4685-8bd1-fb37f389ab03",
              "parentUUID": "7e6d6d04-70db-4cf2-a360-1487dbe9d27b",
              "isHook": false,
              "skipped": false
            }
          ],
          "suites": [],
          "passes": [],
          "failures": [
            "c2fc1625-c00b-4685-8bd1-fb37f389ab03"
          ],
          "pending": [],
          "skipped": [],
          "duration": 1058,
          "root": false,
          "rootEmpty": false,
          "_timeout": 2000
        }
      ],
      "passes": [],
      "failures": [],
      "pending": [],
      "skipped": [],
      "duration": 0,
      "root": true,
      "rootEmpty": true,
      "_timeout": 2000
    }
  ],
  "meta": {
    "mocha": {
      "version": "7.0.1"
    },
    "mochawesome": {
      "options": {
        "quiet": false,
        "reportFilename": "mochawesome",
        "saveHtml": false,
        "saveJson": true,
        "consoleReporter": "spec",
        "useInlineDiffs": false,
        "code": true
      },
      "version": "7.1.3"
    },
    "marge": {
      "options": {
        "overwrite": false,
        "html": false,
        "json": true
      },
      "version": "6.2.0"
    }
  }
}