{
  "stats": {
    "suites": 1,
    "tests": 10,
    "passes": 3,
    "pending": 0,
    "failures": 7,
    "start": "2023-02-04T05:53:11.331Z",
    "end": "2023-02-04T05:57:52.349Z",
    "duration": 281018,
    "testsRegistered": 10,
    "passPercent": 30,
    "pendingPercent": 0,
    "other": 0,
    "hasOther": false,
    "skipped": 0,
    "hasSkipped": false
  },
  "results": [
    {
      "uuid": "9539c7ba-6f66-4006-9096-469db3301a63",
      "title": "",
      "fullFile": "cypress/e2e/End-2EndTesting.cy.js",
      "file": "cypress/e2e/End-2EndTesting.cy.js",
      "beforeHooks": [],
      "afterHooks": [],
      "tests": [],
      "suites": [
        {
          "uuid": "7b4db343-00b1-4746-945a-0b94a406631b",
          "title": "TelcoStack Sanity end to end sanity Testing",
          "fullFile": "",
          "file": "",
          "beforeHooks": [],
          "afterHooks": [],
          "tests": [
            {
              "title": "Verify Login functionality of the application",
              "fullTitle": "TelcoStack Sanity end to end sanity Testing Verify Login functionality of the application",
              "timedOut": null,
              "duration": 142782,
              "state": "passed",
              "speed": "slow",
              "pass": true,
              "fail": false,
              "pending": false,
              "context": null,
              "code": "cy.visit('https://sso-rhsso-keycloak.apps.mvp.telcostackmvp.br.telefonica.com/auth/realms/telco-web-test/protocol/openid-connect/auth?client_id=masterClient&redirect_uri=https%3A%2F%2Ftelco-fe-telco-webapplications-test.apps.mvp.telcostackmvp.br.telefonica.com%2F%23%2Fhome%2Fdashboard%2Fdashboard-landing%2Fdashboard-details&state=598c1232-ec03-4767-889f-0c7af63e8eb0&response_mode=fragment&response_type=code&scope=openid&nonce=8dbc50dc-1df7-496e-a639-dc63546f1c86');\ncy.get(\"#username\").type(this.data.username); //username\ncy.wait(5000);\ncy.get(\"#password\").type(this.data.password);\ncy.get(\"#kc-login\").click();\ncy.wait(120000); //Click on Login\n// cy.request('http://telco-frontend-telco-webapplications-test.apps.mvp.telcostackmvp.br.telefonica.com/#/home/dashboard/dashboard-home').should((response) => {\n//expect(response.status).to.eq(200)\n//expect(response).to.have.property('headers')\n//expect(response).to.have.property('duration')",
              "err": {},
              "uuid": "966aa123-1fc2-4b98-aa0d-7339056806f5",
              "parentUUID": "7b4db343-00b1-4746-945a-0b94a406631b",
              "isHook": false,
              "skipped": false
            },
            {
              "title": "Verify the fault monitoring menu",
              "fullTitle": "TelcoStack Sanity end to end sanity Testing Verify the fault monitoring menu",
              "timedOut": null,
              "duration": 10227,
              "state": "passed",
              "speed": "slow",
              "pass": true,
              "fail": false,
              "pending": false,
              "context": null,
              "code": "cy.get(\".sidebar-top > telco-tree:nth-child(1) > div:nth-child(1) > div:nth-child(2) > div:nth-child(1) > div:nth-child(1) > p:nth-child(2)\").should('be.visible').click();\ncy.wait(10000);",
              "err": {},
              "uuid": "b9702d77-f4d9-4f0d-8e3f-56d60a31caa5",
              "parentUUID": "7b4db343-00b1-4746-945a-0b94a406631b",
              "isHook": false,
              "skipped": false
            },
            {
              "title": "Verify the Signal Monitoring Page",
              "fullTitle": "TelcoStack Sanity end to end sanity Testing Verify the Signal Monitoring Page",
              "timedOut": null,
              "duration": 50346,
              "state": "passed",
              "speed": "slow",
              "pass": true,
              "fail": false,
              "pending": false,
              "context": null,
              "code": "cy.wait(20000);\ncy.get(\".sidebar-top > telco-tree:nth-child(1) > div:nth-child(1) > div:nth-child(4) > div:nth-child(1) > div:nth-child(1) > p:nth-child(2)\").click();\ncy.wait(30000);",
              "err": {},
              "uuid": "bebf8f44-d682-4388-9fab-e3244650f0c6",
              "parentUUID": "7b4db343-00b1-4746-945a-0b94a406631b",
              "isHook": false,
              "skipped": false
            },
            {
              "title": "verify the Volte Qualidade General dashboard",
              "fullTitle": "TelcoStack Sanity end to end sanity Testing verify the Volte Qualidade General dashboard",
              "timedOut": null,
              "duration": 14240,
              "state": "failed",
              "speed": null,
              "pass": false,
              "fail": true,
              "pending": false,
              "context": "{\n  \"title\": \"cypress-mochawesome-reporter-screenshots\",\n  \"value\": [\n    [\n      {\n        \"title\": \"Failed screenshot\",\n        \"value\": \"/End-2EndTesting.cy.js/TelcoStack Sanity end to end sanity Testing -- verify the Volte Qualidade General dashboard (failed).png\"\n      }\n    ]\n  ]\n}",
              "code": "cy.wait(10000);\ncy.xpath('/html/body/app-root/telco-cmp-home/div/div[2]/div/telco-signal-monitoring/div[2]/telco-signal-monitoring-dashboard/div/div[2]/div/div/mat-expansion-panel/mat-expansion-panel-header/span[1]/p').should('be.visible');",
              "err": {
                "message": "AssertionError: Timed out retrying after 4000ms: Expected to find element: `/html/body/app-root/telco-cmp-home/div/div[2]/div/telco-signal-monitoring/div[2]/telco-signal-monitoring-dashboard/div/div[2]/div/div/mat-expansion-panel/mat-expansion-panel-header/span[1]/p`, but never found it.",
                "estack": "AssertionError: Timed out retrying after 4000ms: Expected to find element: `/html/body/app-root/telco-cmp-home/div/div[2]/div/telco-signal-monitoring/div[2]/telco-signal-monitoring-dashboard/div/div[2]/div/div/mat-expansion-panel/mat-expansion-panel-header/span[1]/p`, but never found it.\n    at Context.eval (webpack:///./cypress/e2e/End-2EndTesting.cy.js:723:207)",
                "diff": null
              },
              "uuid": "f08c12ce-901b-4178-b2d0-3a923a049075",
              "parentUUID": "7b4db343-00b1-4746-945a-0b94a406631b",
              "isHook": false,
              "skipped": false
            },
            {
              "title": "Verify the MOS volte Widget",
              "fullTitle": "TelcoStack Sanity end to end sanity Testing Verify the MOS volte Widget",
              "timedOut": null,
              "duration": 9174,
              "state": "failed",
              "speed": null,
              "pass": false,
              "fail": true,
              "pending": false,
              "context": "{\n  \"title\": \"cypress-mochawesome-reporter-screenshots\",\n  \"value\": [\n    [\n      {\n        \"title\": \"Failed screenshot\",\n        \"value\": \"/End-2EndTesting.cy.js/TelcoStack Sanity end to end sanity Testing -- Verify the MOS volte Widget (failed).png\"\n      }\n    ]\n  ]\n}",
              "code": "cy.wait(5000);\ncy.xpath('/html/body/app-root/telco-cmp-home/div/div[2]/div/telco-signal-monitoring/div[2]/telco-signal-monitoring-dashboard/div/div[2]/div/div/mat-expansion-panel/div/div/gridster/gridster-item[1]/telco-bar-widget/div/div/div/div[1]').should('be.visible');\ncy.get(\".home-body.router-outlet.overflow-x-hidden\").scrollTo(0, 500);",
              "err": {
                "message": "AssertionError: Timed out retrying after 4000ms: Expected to find element: `/html/body/app-root/telco-cmp-home/div/div[2]/div/telco-signal-monitoring/div[2]/telco-signal-monitoring-dashboard/div/div[2]/div/div/mat-expansion-panel/div/div/gridster/gridster-item[1]/telco-bar-widget/div/div/div/div[1]`, but never found it.",
                "estack": "AssertionError: Timed out retrying after 4000ms: Expected to find element: `/html/body/app-root/telco-cmp-home/div/div[2]/div/telco-signal-monitoring/div[2]/telco-signal-monitoring-dashboard/div/div[2]/div/div/mat-expansion-panel/div/div/gridster/gridster-item[1]/telco-bar-widget/div/div/div/div[1]`, but never found it.\n    at Context.eval (webpack:///./cypress/e2e/End-2EndTesting.cy.js:729:240)",
                "diff": null
              },
              "uuid": "1971a276-f3b3-4cec-8ac9-49b3b56bb2c9",
              "parentUUID": "7b4db343-00b1-4746-945a-0b94a406631b",
              "isHook": false,
              "skipped": false
            },
            {
              "title": "Verify the PACKET LOSS Médio VoLTE widget ",
              "fullTitle": "TelcoStack Sanity end to end sanity Testing Verify the PACKET LOSS Médio VoLTE widget ",
              "timedOut": null,
              "duration": 9179,
              "state": "failed",
              "speed": null,
              "pass": false,
              "fail": true,
              "pending": false,
              "context": "{\n  \"title\": \"cypress-mochawesome-reporter-screenshots\",\n  \"value\": [\n    [\n      {\n        \"title\": \"Failed screenshot\",\n        \"value\": \"/End-2EndTesting.cy.js/TelcoStack Sanity end to end sanity Testing -- Verify the PACKET LOSS Médio VoLTE widget (failed).png\"\n      }\n    ]\n  ]\n}",
              "code": "cy.wait(5000);\ncy.xpath('/html/body/app-root/telco-cmp-home/div/div[2]/div/telco-signal-monitoring/div[2]/telco-signal-monitoring-dashboard/div/div[2]/div/div/mat-expansion-panel/div/div/gridster/gridster-item[3]/telco-bar-widget/div/div/div/div[1]').should('be.visible');\ncy.wait(10000); // cy.get(\"#cdk-accordion-child-0 > div > gridster > gridster-item:nth-child(75) > telco-bar-widget > div > div > div > div.pad-12-16.width-100.border-bottom-ebb\").scrollIntoView().should('be.visible')\ncy.get(\".home-body.router-outlet.overflow-x-hidden\").scrollTo(0, 500);",
              "err": {
                "message": "AssertionError: Timed out retrying after 4000ms: Expected to find element: `/html/body/app-root/telco-cmp-home/div/div[2]/div/telco-signal-monitoring/div[2]/telco-signal-monitoring-dashboard/div/div[2]/div/div/mat-expansion-panel/div/div/gridster/gridster-item[3]/telco-bar-widget/div/div/div/div[1]`, but never found it.",
                "estack": "AssertionError: Timed out retrying after 4000ms: Expected to find element: `/html/body/app-root/telco-cmp-home/div/div[2]/div/telco-signal-monitoring/div[2]/telco-signal-monitoring-dashboard/div/div[2]/div/div/mat-expansion-panel/div/div/gridster/gridster-item[3]/telco-bar-widget/div/div/div/div[1]`, but never found it.\n    at Context.eval (webpack:///./cypress/e2e/End-2EndTesting.cy.js:742:240)",
                "diff": null
              },
              "uuid": "ca89bfe6-0d6d-451d-a198-9a70888dfec1",
              "parentUUID": "7b4db343-00b1-4746-945a-0b94a406631b",
              "isHook": false,
              "skipped": false
            },
            {
              "title": "Verify the JITTER Médio VoLTE Widget",
              "fullTitle": "TelcoStack Sanity end to end sanity Testing Verify the JITTER Médio VoLTE Widget",
              "timedOut": null,
              "duration": 14196,
              "state": "failed",
              "speed": null,
              "pass": false,
              "fail": true,
              "pending": false,
              "context": "{\n  \"title\": \"cypress-mochawesome-reporter-screenshots\",\n  \"value\": [\n    [\n      {\n        \"title\": \"Failed screenshot\",\n        \"value\": \"/End-2EndTesting.cy.js/TelcoStack Sanity end to end sanity Testing -- Verify the JITTER Médio VoLTE Widget (failed).png\"\n      }\n    ]\n  ]\n}",
              "code": "cy.wait(10000);\ncy.xpath('/html/body/app-root/telco-cmp-home/div/div[2]/div/telco-signal-monitoring/div[2]/telco-signal-monitoring-dashboard/div/div[2]/div/div/mat-expansion-panel/div/div/gridster/gridster-item[3]/telco-bar-widget/div/div/div/div[1]').should('be.visible');\ncy.wait(5000); // cy.get(\"#cdk-accordion-child-4 > div > gridster > gridster-item:nth-child(76) > app-map > div > div > div > div.pad-12-16.width-100.border-bottom-ebb\").scrollIntoView().should('be.visible')\ncy.get(\".home-body.router-outlet.overflow-x-hidden\").scrollTo(0, 500);",
              "err": {
                "message": "AssertionError: Timed out retrying after 4000ms: Expected to find element: `/html/body/app-root/telco-cmp-home/div/div[2]/div/telco-signal-monitoring/div[2]/telco-signal-monitoring-dashboard/div/div[2]/div/div/mat-expansion-panel/div/div/gridster/gridster-item[3]/telco-bar-widget/div/div/div/div[1]`, but never found it.",
                "estack": "AssertionError: Timed out retrying after 4000ms: Expected to find element: `/html/body/app-root/telco-cmp-home/div/div[2]/div/telco-signal-monitoring/div[2]/telco-signal-monitoring-dashboard/div/div[2]/div/div/mat-expansion-panel/div/div/gridster/gridster-item[3]/telco-bar-widget/div/div/div/div[1]`, but never found it.\n    at Context.eval (webpack:///./cypress/e2e/End-2EndTesting.cy.js:752:240)",
                "diff": null
              },
              "uuid": "839477f3-ec23-4cf7-a36b-63aa1d69a758",
              "parentUUID": "7b4db343-00b1-4746-945a-0b94a406631b",
              "isHook": false,
              "skipped": false
            },
            {
              "title": "verify the TOP 50 Sites por queda de Chamada  Widget",
              "fullTitle": "TelcoStack Sanity end to end sanity Testing verify the TOP 50 Sites por queda de Chamada  Widget",
              "timedOut": null,
              "duration": 9189,
              "state": "failed",
              "speed": null,
              "pass": false,
              "fail": true,
              "pending": false,
              "context": "{\n  \"title\": \"cypress-mochawesome-reporter-screenshots\",\n  \"value\": [\n    [\n      {\n        \"title\": \"Failed screenshot\",\n        \"value\": \"/End-2EndTesting.cy.js/TelcoStack Sanity end to end sanity Testing -- verify the TOP 50 Sites por queda de Chamada  Widget (failed).png\"\n      }\n    ]\n  ]\n}",
              "code": "cy.wait(5000);\ncy.xpath('/html/body/app-root/telco-cmp-home/div/div[2]/div/telco-signal-monitoring/div[2]/telco-signal-monitoring-dashboard/div/div[2]/div/div/mat-expansion-panel/div/div/gridster/gridster-item[4]/app-map/div/div/div/div[1]').should('be.visible');\ncy.get(\".home-body.router-outlet.overflow-x-hidden\").scrollTo(0, 1500);",
              "err": {
                "message": "AssertionError: Timed out retrying after 4000ms: Expected to find element: `/html/body/app-root/telco-cmp-home/div/div[2]/div/telco-signal-monitoring/div[2]/telco-signal-monitoring-dashboard/div/div[2]/div/div/mat-expansion-panel/div/div/gridster/gridster-item[4]/app-map/div/div/div/div[1]`, but never found it.",
                "estack": "AssertionError: Timed out retrying after 4000ms: Expected to find element: `/html/body/app-root/telco-cmp-home/div/div[2]/div/telco-signal-monitoring/div[2]/telco-signal-monitoring-dashboard/div/div[2]/div/div/mat-expansion-panel/div/div/gridster/gridster-item[4]/app-map/div/div/div/div[1]`, but never found it.\n    at Context.eval (webpack:///./cypress/e2e/End-2EndTesting.cy.js:763:231)",
                "diff": null
              },
              "uuid": "dc0aa419-89dd-48f5-b6fb-5191079050fe",
              "parentUUID": "7b4db343-00b1-4746-945a-0b94a406631b",
              "isHook": false,
              "skipped": false
            },
            {
              "title": "Verify the VoLTE - Tipo de Queda Widget ",
              "fullTitle": "TelcoStack Sanity end to end sanity Testing Verify the VoLTE - Tipo de Queda Widget ",
              "timedOut": null,
              "duration": 9232,
              "state": "failed",
              "speed": null,
              "pass": false,
              "fail": true,
              "pending": false,
              "context": "{\n  \"title\": \"cypress-mochawesome-reporter-screenshots\",\n  \"value\": [\n    [\n      {\n        \"title\": \"Failed screenshot\",\n        \"value\": \"/End-2EndTesting.cy.js/TelcoStack Sanity end to end sanity Testing -- Verify the VoLTE - Tipo de Queda Widget (failed).png\"\n      }\n    ]\n  ]\n}",
              "code": "cy.wait(5000);\ncy.xpath('/html/body/app-root/telco-cmp-home/div/div[2]/div/telco-signal-monitoring/div[2]/telco-signal-monitoring-dashboard/div/div[2]/div/div/mat-expansion-panel/div/div/gridster/gridster-item[5]/telco-bar-widget/div/div/div/div[1]').should('be.visible');\ncy.get(\".home-body.router-outlet.overflow-x-hidden\").scrollTo(0, 2000);",
              "err": {
                "message": "AssertionError: Timed out retrying after 4000ms: Expected to find element: `/html/body/app-root/telco-cmp-home/div/div[2]/div/telco-signal-monitoring/div[2]/telco-signal-monitoring-dashboard/div/div[2]/div/div/mat-expansion-panel/div/div/gridster/gridster-item[5]/telco-bar-widget/div/div/div/div[1]`, but never found it.",
                "estack": "AssertionError: Timed out retrying after 4000ms: Expected to find element: `/html/body/app-root/telco-cmp-home/div/div[2]/div/telco-signal-monitoring/div[2]/telco-signal-monitoring-dashboard/div/div[2]/div/div/mat-expansion-panel/div/div/gridster/gridster-item[5]/telco-bar-widget/div/div/div/div[1]`, but never found it.\n    at Context.eval (webpack:///./cypress/e2e/End-2EndTesting.cy.js:771:240)",
                "diff": null
              },
              "uuid": "91772a49-4c74-4487-afcb-8d134857cd19",
              "parentUUID": "7b4db343-00b1-4746-945a-0b94a406631b",
              "isHook": false,
              "skipped": false
            },
            {
              "title": "Verify the Clusters e Sites Widget ",
              "fullTitle": "TelcoStack Sanity end to end sanity Testing Verify the Clusters e Sites Widget ",
              "timedOut": null,
              "duration": 9194,
              "state": "failed",
              "speed": null,
              "pass": false,
              "fail": true,
              "pending": false,
              "context": "{\n  \"title\": \"cypress-mochawesome-reporter-screenshots\",\n  \"value\": [\n    [\n      {\n        \"title\": \"Failed screenshot\",\n        \"value\": \"/End-2EndTesting.cy.js/TelcoStack Sanity end to end sanity Testing -- Verify the Clusters e Sites Widget (failed).png\"\n      }\n    ]\n  ]\n}",
              "code": "cy.wait(5000);\ncy.xpath('/html/body/app-root/telco-cmp-home/div/div[2]/div/telco-signal-monitoring/div[2]/telco-signal-monitoring-dashboard/div/div[2]/div/div/mat-expansion-panel/div/div/gridster/gridster-item[6]/telco-table-widget/div/div/div/div[1]').should('be.visible');",
              "err": {
                "message": "AssertionError: Timed out retrying after 4000ms: Expected to find element: `/html/body/app-root/telco-cmp-home/div/div[2]/div/telco-signal-monitoring/div[2]/telco-signal-monitoring-dashboard/div/div[2]/div/div/mat-expansion-panel/div/div/gridster/gridster-item[6]/telco-table-widget/div/div/div/div[1]`, but never found it.",
                "estack": "AssertionError: Timed out retrying after 4000ms: Expected to find element: `/html/body/app-root/telco-cmp-home/div/div[2]/div/telco-signal-monitoring/div[2]/telco-signal-monitoring-dashboard/div/div[2]/div/div/mat-expansion-panel/div/div/gridster/gridster-item[6]/telco-table-widget/div/div/div/div[1]`, but never found it.\n    at Context.eval (webpack:///./cypress/e2e/End-2EndTesting.cy.js:779:242)",
                "diff": null
              },
              "uuid": "ff71cef7-77ce-456a-b3e7-f38e3d7a371f",
              "parentUUID": "7b4db343-00b1-4746-945a-0b94a406631b",
              "isHook": false,
              "skipped": false
            }
          ],
          "suites": [],
          "passes": [
            "966aa123-1fc2-4b98-aa0d-7339056806f5",
            "b9702d77-f4d9-4f0d-8e3f-56d60a31caa5",
            "bebf8f44-d682-4388-9fab-e3244650f0c6"
          ],
          "failures": [
            "f08c12ce-901b-4178-b2d0-3a923a049075",
            "1971a276-f3b3-4cec-8ac9-49b3b56bb2c9",
            "ca89bfe6-0d6d-451d-a198-9a70888dfec1",
            "839477f3-ec23-4cf7-a36b-63aa1d69a758",
            "dc0aa419-89dd-48f5-b6fb-5191079050fe",
            "91772a49-4c74-4487-afcb-8d134857cd19",
            "ff71cef7-77ce-456a-b3e7-f38e3d7a371f"
          ],
          "pending": [],
          "skipped": [],
          "duration": 277759,
          "root": false,
          "rootEmpty": false,
          "_timeout": 2000
        }
      ],
      "passes": [],
      "failures": [],
      "pending": [],
      "skipped": [],
      "duration": 0,
      "root": true,
      "rootEmpty": true,
      "_timeout": 2000
    }
  ],
  "meta": {
    "mocha": {
      "version": "7.0.1"
    },
    "mochawesome": {
      "options": {
        "quiet": false,
        "reportFilename": "mochawesome",
        "saveHtml": false,
        "saveJson": true,
        "consoleReporter": "spec",
        "useInlineDiffs": false,
        "code": true
      },
      "version": "7.1.3"
    },
    "marge": {
      "options": {
        "overwrite": false,
        "html": false,
        "json": true
      },
      "version": "6.2.0"
    }
  }
}